…
Mutate ()

Will use mutate to round decimals

my_data<-head(sui %>% arrange(desc(suicides_mean)) %>%  mutate(suicides_mean = round(suicides_mean, 2)),50)
my_data

## # A tibble: 50 x 3
##    country            count suicides_mean
##    <fct>              <int>         <dbl>
##  1 Russian Federation   324         3734.
##  2 United States        372         2780.
##  3 Japan                372         2169.
##  4 Ukraine              336          952.
##  5 Germany              312          934.
##  6 France               360          914.
##  7 Republic of Korea    372          704.
##  8 Brazil               372          609.
##  9 Poland               288          483.
## 10 Sri Lanka            132          422.
## # ... with 40 more rows
…
